11:50:02.407158 IP localhost.35402 > localhost.ircu-2: Flags [S], seq 1733223532, win 43690, options [mss 65495,sackOK,TS val 3370134120 ecr 0,nop,wscale 7], length 0
11:50:02.407213 IP localhost.ircu-2 > localhost.35402: Flags [S.], seq 2553073188, ack 1733223533, win 43690, options [mss 65495,sackOK,TS val 3370134120 ecr 3370134120,nop,wscale 7], length 0
11:50:02.407246 IP localhost.35402 > localhost.ircu-2: Flags [.], ack 1, win 342, options [nop,nop,TS val 3370134120 ecr 3370134120], length 0
11:50:02.408801 IP localhost.35402 > localhost.ircu-2: Flags [P.], seq 1:2, ack 1, win 342, options [nop,nop,TS val 3370134122 ecr 3370134120], length 1
11:50:02.408839 IP localhost.ircu-2 > localhost.35402: Flags [.], ack 2, win 342, options [nop,nop,TS val 3370134122 ecr 3370134122], length 0
11:50:02.408890 IP localhost.35402 > localhost.ircu-2: Flags [P.], seq 2:3, ack 1, win 342, options [nop,nop,TS val 3370134122 ecr 3370134122], length 1
11:50:02.408906 IP localhost.ircu-2 > localhost.35402: Flags [.], ack 3, win 342, options [nop,nop,TS val 3370134122 ecr 3370134122], length 0
11:50:02.408935 IP localhost.35402 > localhost.ircu-2: Flags [P.], seq 3:4, ack 1, win 342, options [nop,nop,TS val 3370134122 ecr 3370134122], length 1
11:50:02.408953 IP localhost.ircu-2 > localhost.35402: Flags [.], ack 4, win 342, options [nop,nop,TS val 3370134122 ecr 3370134122], length 0
11:50:02.409008 IP localhost.35402 > localhost.ircu-2: Flags [P.], seq 4:5, ack 1, win 342, options [nop,nop,TS val 3370134122 ecr 3370134122], length 1
11:50:02.409025 IP localhost.ircu-2 > localhost.35402: Flags [.], ack 5, win 342, options [nop,nop,TS val 3370134122 ecr 3370134122], length 0
11:50:02.409216 IP localhost.35402 > localhost.ircu-2: Flags [.], seq 5:21893, ack 1, win 342, options [nop,nop,TS val 3370134122 ecr 3370134122], length 21888
11:50:02.409235 IP localhost.ircu-2 > localhost.35402: Flags [.], ack 21893, win 1365, options [nop,nop,TS val 3370134122 ecr 3370134122], length 0
11:50:02.409314 IP localhost.35402 > localhost.ircu-2: Flags [P.], seq 21893:80208, ack 1, win 342, options [nop,nop,TS val 3370134122 ecr 3370134122], length 58315
11:50:02.409334 IP localhost.ircu-2 > localhost.35402: Flags [.], ack 80208, win 2388, options [nop,nop,TS val 3370134122 ecr 3370134122], length 0
11:50:02.885170 IP localhost.ircu-2 > localhost.35402: Flags [P.], seq 1:2, ack 80208, win 2388, options [nop,nop,TS val 3370134598 ecr 3370134122], length 1
11:50:02.885206 IP localhost.35402 > localhost.ircu-2: Flags [.], ack 2, win 342, options [nop,nop,TS val 3370134598 ecr 3370134598], length 0
11:50:02.885249 IP localhost.ircu-2 > localhost.35402: Flags [P.], seq 2:3, ack 80208, win 2388, options [nop,nop,TS val 3370134598 ecr 3370134598], length 1
11:50:02.885261 IP localhost.35402 > localhost.ircu-2: Flags [.], ack 3, win 342, options [nop,nop,TS val 3370134598 ecr 3370134598], length 0
11:50:02.885287 IP localhost.ircu-2 > localhost.35402: Flags [P.], seq 3:4, ack 80208, win 2388, options [nop,nop,TS val 3370134598 ecr 3370134598], length 1
11:50:02.885301 IP localhost.35402 > localhost.ircu-2: Flags [.], ack 4, win 342, options [nop,nop,TS val 3370134598 ecr 3370134598], length 0
11:50:02.885324 IP localhost.ircu-2 > localhost.35402: Flags [P.], seq 4:5, ack 80208, win 2388, options [nop,nop,TS val 3370134598 ecr 3370134598], length 1
11:50:02.885336 IP localhost.35402 > localhost.ircu-2: Flags [.], ack 5, win 342, options [nop,nop,TS val 3370134598 ecr 3370134598], length 0
11:50:02.885359 IP localhost.ircu-2 > localhost.35402: Flags [P.], seq 5:6, ack 80208, win 2388, options [nop,nop,TS val 3370134598 ecr 3370134598], length 1
11:50:02.885370 IP localhost.35402 > localhost.ircu-2: Flags [.], ack 6, win 342, options [nop,nop,TS val 3370134598 ecr 3370134598], length 0
11:50:02.885393 IP localhost.ircu-2 > localhost.35402: Flags [P.], seq 6:7, ack 80208, win 2388, options [nop,nop,TS val 3370134598 ecr 3370134598], length 1
11:50:02.885404 IP localhost.35402 > localhost.ircu-2: Flags [.], ack 7, win 342, options [nop,nop,TS val 3370134598 ecr 3370134598], length 0
11:50:02.885427 IP localhost.ircu-2 > localhost.35402: Flags [P.], seq 7:8, ack 80208, win 2388, options [nop,nop,TS val 3370134598 ecr 3370134598], length 1
11:50:02.885438 IP localhost.35402 > localhost.ircu-2: Flags [.], ack 8, win 342, options [nop,nop,TS val 3370134598 ecr 3370134598], length 0
11:50:02.885462 IP localhost.ircu-2 > localhost.35402: Flags [P.], seq 8:9, ack 80208, win 2388, options [nop,nop,TS val 3370134598 ecr 3370134598], length 1
11:50:02.885473 IP localhost.35402 > localhost.ircu-2: Flags [.], ack 9, win 342, options [nop,nop,TS val 3370134598 ecr 3370134598], length 0
11:50:02.885495 IP localhost.ircu-2 > localhost.35402: Flags [P.], seq 9:10, ack 80208, win 2388, options [nop,nop,TS val 3370134598 ecr 3370134598], length 1
11:50:02.885507 IP localhost.35402 > localhost.ircu-2: Flags [.], ack 10, win 342, options [nop,nop,TS val 3370134598 ecr 3370134598], length 0
11:50:02.885530 IP localhost.ircu-2 > localhost.35402: Flags [P.], seq 10:11, ack 80208, win 2388, options [nop,nop,TS val 3370134598 ecr 3370134598], length 1
11:50:02.885541 IP localhost.35402 > localhost.ircu-2: Flags [.], ack 11, win 342, options [nop,nop,TS val 3370134598 ecr 3370134598], length 0
11:50:02.885564 IP localhost.ircu-2 > localhost.35402: Flags [P.], seq 11:12, ack 80208, win 2388, options [nop,nop,TS val 3370134598 ecr 3370134598], length 1
11:50:02.885576 IP localhost.35402 > localhost.ircu-2: Flags [.], ack 12, win 342, options [nop,nop,TS val 3370134598 ecr 3370134598], length 0
11:50:02.885599 IP localhost.ircu-2 > localhost.35402: Flags [P.], seq 12:13, ack 80208, win 2388, options [nop,nop,TS val 3370134598 ecr 3370134598], length 1
11:50:02.885610 IP localhost.35402 > localhost.ircu-2: Flags [.], ack 13, win 342, options [nop,nop,TS val 3370134598 ecr 3370134598], length 0
11:50:02.885633 IP localhost.ircu-2 > localhost.35402: Flags [P.], seq 13:14, ack 80208, win 2388, options [nop,nop,TS val 3370134598 ecr 3370134598], length 1
11:50:02.885644 IP localhost.35402 > localhost.ircu-2: Flags [.], ack 14, win 342, options [nop,nop,TS val 3370134598 ecr 3370134598], length 0
11:50:02.885668 IP localhost.ircu-2 > localhost.35402: Flags [P.], seq 14:15, ack 80208, win 2388, options [nop,nop,TS val 3370134599 ecr 3370134598], length 1
11:50:02.885680 IP localhost.35402 > localhost.ircu-2: Flags [.], ack 15, win 342, options [nop,nop,TS val 3370134599 ecr 3370134599], length 0
11:50:02.885703 IP localhost.ircu-2 > localhost.35402: Flags [P.], seq 15:16, ack 80208, win 2388, options [nop,nop,TS val 3370134599 ecr 3370134599], length 1
11:50:02.885724 IP localhost.35402 > localhost.ircu-2: Flags [.], ack 16, win 342, options [nop,nop,TS val 3370134599 ecr 3370134599], length 0
11:50:02.885757 IP localhost.ircu-2 > localhost.35402: Flags [P.], seq 16:17, ack 80208, win 2388, options [nop,nop,TS val 3370134599 ecr 3370134599], length 1
11:50:02.885769 IP localhost.35402 > localhost.ircu-2: Flags [.], ack 17, win 342, options [nop,nop,TS val 3370134599 ecr 3370134599], length 0
11:50:02.885792 IP localhost.ircu-2 > localhost.35402: Flags [P.], seq 17:18, ack 80208, win 2388, options [nop,nop,TS val 3370134599 ecr 3370134599], length 1
11:50:02.885823 IP localhost.35402 > localhost.ircu-2: Flags [.], ack 18, win 342, options [nop,nop,TS val 3370134599 ecr 3370134599], length 0
11:50:02.885842 IP localhost.ircu-2 > localhost.35402: Flags [P.], seq 18:23, ack 80208, win 2388, options [nop,nop,TS val 3370134599 ecr 3370134599], length 5
11:50:02.885886 IP localhost.35402 > localhost.ircu-2: Flags [.], ack 23, win 342, options [nop,nop,TS val 3370134599 ecr 3370134599], length 0
11:50:02.885902 IP localhost.ircu-2 > localhost.35402: Flags [P.], seq 23:38, ack 80208, win 2388, options [nop,nop,TS val 3370134599 ecr 3370134599], length 15
11:50:02.886166 IP localhost.35402 > localhost.ircu-2: Flags [.], ack 38, win 342, options [nop,nop,TS val 3370134599 ecr 3370134599], length 0
11:50:02.886183 IP localhost.ircu-2 > localhost.35402: Flags [P.], seq 38:59, ack 80208, win 2388, options [nop,nop,TS val 337013459